<svg version="1.1" viewBox="0 0 769.92 1051" xmlns="http://www.w3.org/2000/svg">
 <title>knockout!</title>
 <path transform="translate(-8.28)" d="M602.1,322l176.1,8.6-161-49.9,154.3-42L610.7,229,714,142.2,554.3,168.8,582.7,24.6,479.3,142.4,458.3,0,416.7,133.7,352.5,32.8,369,141.1,245.1,87.5l41.3,83.4-21.3.5h-.8c-.9,0-1.8.1-2.8.1l-79.4,1.9,24.2,13.2a111.87,111.87,0,0,0-14.4,9.5,121.68,121.68,0,0,0-22.1,22.1A118.34,118.34,0,0,0,156.6,240a343.64,343.64,0,0,0-52.8,29.9c-21.3,14.9-39.1,31.7-52.7,49.9l-.9,1.2C33,344.4,22.7,369.7,19.6,396.2,8.2,492.9,39.4,589.1,75.4,641.5c17.4,25.4,13.1,66.3,9.9,79.9-.2.9-.4,1.9-.7,3.2l-5.3,31.5A164.71,164.71,0,0,0,60,777a56.94,56.94,0,0,0-3.6,5.1,44.92,44.92,0,0,0-5.8,13L15.7,928.3a71.73,71.73,0,0,0-7.3,31,44.56,44.56,0,0,0,3.3,20.4c15.2,45.4,77.9,71.3,172.7,71.3h0a562,562,0,0,0,94.2-8.3c92.5-15.7,181.4-55,216-95.6l1.2-1.5c16.3-21.9,14.5-49.3,13.3-58.4l-5.5-131.1c3-1.4,6.6-3.1,11-4.9,25-10.2,62.3-36.3,89-71.3,32.5-42.5,42.3-87.4,28.4-130-5.8-17.9-9-37.9-12.1-57.2-1.3-8.1-2.8-17.8-4.8-27.5,6.8-29.2,7.5-67.9-1.6-107.1l34.9,14.4Z" fill="#a4a4a4"/>
 <g>
  <path transform="translate(-8.28)" d="m284.5 836.2a515.11 515.11 0 0 0-73.3 22.4c-49 19.4-50.2 6.1-49.8 2.8l13.8-78 1-5.6c2-7.1 8.3-19.7 27.6-30.7 4.9-2.5 10.2-5 15.8-7.4 48-20 122.7-31.3 224.3 9.5l3.8 113.7c-34.2-19.4-90.8-33.8-163.2-26.7z" fill="#ffd700"/>
  <path transform="translate(-8.28)" d="M603.9,559.2c-6.5-20.1-9.9-41.3-13.2-61.7-1.8-11.1-3.6-22.2-5.9-32.9,10.8-37.8,9.1-100.2-20.3-152.7a171.1,171.1,0,0,0-30.2-39.3,84,84,0,0,0-135.2-66.4,82.84,82.84,0,0,0-15.6,15.7c-.2.2-.3.5-.5.7a511.48,511.48,0,0,0-57.1,2.9,89.3,89.3,0,0,0-115.8-6,93.16,93.16,0,0,0-16.6,16.6,87.8,87.8,0,0,0-13.7,26,334.26,334.26,0,0,0-58.9,32c-42.3,29.5-67.1,66-71.8,105.5C38.6,488.7,67,576.8,99.9,624.6c29,42.1,14.4,103.2,14.3,103.7a5.16,5.16,0,0,0-.2,1.1l-7.1,42.1a143.32,143.32,0,0,0-23.2,23.3c-1.6,2.1-2.4,3.3-2.4,3.3a15.22,15.22,0,0,0-2,4.3L43.7,938.8c-3.8,7.3-5.8,14.6-5.5,21.7a14.85,14.85,0,0,0,1.4,8.6c13.3,44.6,115.9,64.5,234.1,44.4,87.5-14.9,169.1-51.3,198.4-85.6,11.3-15.1,7.5-37.9,7.5-37.9l-6.3-150.1c3.8-3,12.3-8.8,30.2-16.1,20.6-8.4,53.3-31.2,76.7-61.9C602.2,633,616.1,597,603.9,559.2Zm-319.4,277a515.11,515.11,0,0,0-73.3,22.4c-49,19.4-50.2,6.1-49.8,2.8l13.8-78,1-5.6c2-7.1,8.3-19.7,27.6-30.7,4.9-2.5,10.2-5,15.8-7.4h0c48-20,122.7-31.3,224.3,9.5l3.8,113.7C413.5,843.5,356.9,829.1,284.5,836.2Z" fill="#16161a"/>
  <path d="m551.31 639.51c-15.248-1.0135-30.083-1.8344-44.465-2.4688-14.581-0.64317-28.715-1.1019-42.395-1.3984-13.68-0.29649-26.905-0.4306-39.674-0.42383-12.769 0.00678-25.081 0.15523-36.928 0.42188s-23.231 0.65164-34.146 1.1348c-10.916 0.48312-21.362 1.0645-31.336 1.7207-9.974 0.65619-19.476 1.388-28.498 2.1738-9.0222 0.78586-17.565 1.6259-25.625 2.498-8.0602 0.87215-15.636 1.7764-22.725 2.6914-7.0882 0.91502-13.689 1.8414-19.795 2.7559-12.212 1.829-22.45 3.6132-30.672 5.1797-8.2223 1.5665-14.428 2.9142-18.58 3.8711-2.876 0.66286-3.4385 0.82542-4.3281 1.0547-0.12143 28.109 11.276 58.789 67.076 43.377a292.94 292.94 0 0 1 57.398-9.2988h0.70117c4 0 8 0.09922 12 0.19922 1.2 0 2.3996 0.09961 3.5996 0.09961 2.8 0.1 5.6004 0.3 8.4004 0.5 1.2 0.1 2.3996 0.20117 3.5996 0.20117 3.1 0.2 6.0996 0.49883 9.0996 0.79883 0.7 0.1 1.4012 0.10117 2.2012 0.20117 3.7 0.4 7.2988 0.79883 10.799 1.2988a2 2 0 0 1 0.70117 0.09961c6.1 0.7 5.5996-7.1992 5.5996-7.1992v-4.8008c0.9-19.8 10.299-4 10.299-4l12.102 20.801c3 0.6 5.7996 1.2004 8.5996 1.9004 0.1 0 0.30039 0.09961 0.40039 0.09961s0.3 0.09961 0.5 0.09961c8.2 1.9 15.698 3.8008 22.398 5.8008l1 0.29883c0.1 0 0.20078 0.10156 0.30078 0.10156 1.1 0.3 2.0996 0.59844 3.0996 0.89844 0.2 0 0.3 0.10156 0.5 0.10156s0.3 0.09961 0.5 0.09961c2.7 0.8 5.3012 1.6004 7.7012 2.4004h0.09961c0.2 0.1 0.39961 0.09922 0.59961 0.19922 1.3 0.4 2.4992 0.79922 3.6992 1.1992 0.3 0.1 0.7 0.20078 1 0.30078 0.1 0 0.20078 0.09961 0.30078 0.09961 2 0.7 3.9 1.3 5.5 2a0.76 0.76 0 0 1 0.40039 0.20117c0.2 0.1 0.3 0.09922 0.5 0.19922 1.7 0.6 3.2 1.1992 4.5 1.6992l0.90039 0.30078c1.6 0.6 2.8988 1.1 3.7988 1.5 5.5-5.4 15.601-12.7 34.201-20.9 2.4-1.1 4.8996-2.0992 7.5996-3.1992 1.3-0.5 2.6992-1.2004 4.1992-1.9004a5.94 5.94 0 0 0 0.80078-0.40039c3.1-1.6 6.5992-3.4992 10.199-5.6992 0.1-0.1 0.20078-0.10117 0.30078-0.20117h0.09961c2.1-1.3 4.3-2.7988 6.5-4.2988a165.47 165.47 0 0 0 16.5-12.9c0.3-0.3 0.60039-0.50078 0.90039-0.80078 0.8-0.7 1.7-1.4988 2.5-2.2988a12 12 0 0 1 1.1992-1.0996 23.91 23.91 0 0 0 2.3008-2.2012c0.5-0.4 0.90039-0.89883 1.4004-1.2988 0.7-0.7 1.4992-1.4012 2.1992-2.2012 0.5-0.5 1-0.99961 1.5-1.5996l2.0996-2.0996 3.3008-3.5996 1.5-1.8008c0.7-0.7 1.3-1.5008 2-2.3008l1.5-1.7988c0.6-0.8 1.3004-1.5008 1.9004-2.3008 0.5-0.6 0.89844-1.1988 1.3984-1.7988 0.6-0.8 1.2004-1.6 1.9004-2.5 0.39726-0.59589 0.89241-1.1932 1.291-1.7891z" fill="#ffd700"/>
  <path d="m511.92 423.5v0.19922s-43.5-3.6-55.6 27 3.1004 52 18.9 86-9.3008 45.9-9.3008 45.9v-0.09961a12.13 12.13 0 0 1-1.4004 0.5h-0.19922a11.36 11.36 0 0 1-2.5 0.59961 7.72 7.72 0 0 1-1.5 0.20117h-1a9.74 9.74 0 0 1-2.4004-0.20117 137.76 137.76 0 0 1-35-8.1992c-21.6-8-41.801-3.0996-48.301-1.0996-6.9 2.2-13.599 4.1996-20.199 6.0996-19.4 7.3-22.4 13.6-22.4 13.6s-21.299 29.9-33.699 20c-0.8-0.6-1.8008-1.3004-2.8008-1.9004-0.2-0.1-0.3-0.19883-0.5-0.29883-1-0.6-2.2004-1.2008-3.4004-1.8008-0.1-0.1-0.29844-0.09922-0.39844-0.19922-2.7-1.2-5.7004-2.4016-8.9004-3.6016-4.5-1.6-9.4012-2.9988-14.201-4.2988-2.3-0.6-4.5988-1.2012-6.7988-1.7012h-0.09961c-2.2-0.5-4.3016-0.99844-6.1016-1.3984h-1.5c-2 0.1-3.9984 0.09922-5.8984 0.19922-54.6 2.4-69.001 25.501-72.701 38.801-1.0481 6.184-1.8428 13.467-1.875 20.922 0.88966-0.22927 1.4521-0.39183 4.3281-1.0547 4.1517-0.95686 10.358-2.3046 18.58-3.8711 8.2223-1.5665 18.46-3.3507 30.672-5.1797 6.106-0.9145 12.707-1.8408 19.795-2.7559 7.0882-0.91503 14.664-1.8193 22.725-2.6914 8.0602-0.87214 16.603-1.7122 25.625-2.498 9.0222-0.78587 18.524-1.5176 28.498-2.1738 9.974-0.6562 20.42-1.2376 31.336-1.7207 10.916-0.48312 22.299-0.86811 34.146-1.1348s24.159-0.4151 36.928-0.42188c12.769-0.00677 25.994 0.12734 39.674 0.42383 13.68 0.2965 27.814 0.75527 42.395 1.3984 14.381 0.63436 29.217 1.4552 44.465 2.4688 0.00275-0.00411 0.00702-0.00761 0.00976-0.01172a27.5 27.5 0 0 0 1.9004-2.8008c0.4-0.5 0.69961-1.0996 1.0996-1.5996 0.8-1.2 1.4988-2.3996 2.2988-3.5996 0.2-0.3 0.3-0.50078 0.5-0.80078 0.9-1.5 1.8016-2.9996 2.6016-4.5996l0.59961-1.1992c0.6-1.2 1.1992-2.3 1.6992-3.5a11.11 11.11 0 0 0 0.70117-1.5996c0.5-1 0.89844-2.1016 1.3984-3.1016 0.2-0.6 0.50117-1.0992 0.70117-1.6992 0.4-1 0.79961-2.0996 1.0996-3.0996 0.2-0.6 0.39961-1.1012 0.59961-1.7012a33.74 33.74 0 0 0 1-3.3984c0.1-0.5 0.30039-1 0.40039-1.5 0.4-1.5 0.7-3.1016 1-4.6016a0.37 0.37 0 0 1 0.09961-0.29883c0.3-1.7 0.60078-3.3 0.80078-5a6.6 6.6 0 0 0 0.09961-1.4004l0.30078-3.5996v-1.8008a15.64 15.64 0 0 0 0.19922-3.0996c0-0.6-0.09961-1.3004-0.09961-1.9004-0.1-1.1-0.20078-2.0992-0.30078-3.1992-0.1-0.6-0.09922-1.3004-0.19922-1.9004-0.2-1.1-0.39961-2.3004-0.59961-3.4004-0.1-0.5-0.20078-1.0996-0.30078-1.5996a41 41 0 0 0-1.4004-5c-7.3-22.3-10.999-45.599-14.299-66.199-0.4-2.7-0.90078-5.3008-1.3008-7.8008-0.2-1.1-0.3-2.0996-0.5-3.0996-0.2-1.5-0.49922-2.9008-0.69922-4.3008s-0.50117-2.4988-0.70117-3.7988c-0.2-1.1-0.39961-2.1012-0.59961-3.2012-0.3-1.4-0.50078-2.6996-0.80078-4.0996-0.2-0.8-0.3-1.6008-0.5-2.3008-0.3-1.5-0.59844-2.8988-0.89844-4.2988-0.1-0.5-0.20078-0.90039-0.30078-1.4004a137 137 0 0 0-5.6992-19.1c0-0.1-0.00156-0.10117-0.10156-0.20117-0.6-1.4-1.0992-2.5984-1.6992-3.8984-0.1-0.1-0.09922-0.30039-0.19922-0.40039-0.6-1.2-1.2004-2.3996-1.9004-3.5996 0-0.1-0.09961-0.10117-0.09961-0.20117a33.44 33.44 0 0 0-13.5-13.4 36.11 36.11 0 0 0-4.9004-2.0996h-0.09961a29.48 29.48 0 0 0-5.5-1.4004c-0.4-0.1-0.90078-0.09922-1.3008-0.19922z" fill="#0057b7"/>
  <path transform="translate(-8.28)" d="M538.5,326.4a156.68,156.68,0,0,0-12.1-18.3,79.87,79.87,0,0,1-9.5,15.8,86.43,86.43,0,0,1-15.7,15.7A84,84,0,0,1,383.4,324a81.32,81.32,0,0,1-9-14.8h0l-4.7-8.9-7.9-9.1a4.28,4.28,0,0,0-1.3-.5h-.2a3.3,3.3,0,0,0-2.2.1H358a4.05,4.05,0,0,0-.9.5h0a3,3,0,0,0-.8.8h0a3.59,3.59,0,0,0-.7,1,.1.1,0,0,1-.1.1,13.35,13.35,0,0,0-1.1,2.4v.1a21.72,21.72,0,0,0-.7,2.4,88.25,88.25,0,0,1-17.9,46.2,90.52,90.52,0,0,1-16.7,16.6,89.47,89.47,0,0,1-125.3-16.5,85.87,85.87,0,0,1-10.1-16.9,56.7,56.7,0,0,0-25-1l-1.9.4c-1,.2-1.9.5-2.9.7l.2-.1-1.3.4-.1.1a45.84,45.84,0,0,0-6.6,2.7c-34.5,20.8-49.6,42.4-56.1,58.7a1.61,1.61,0,0,1-.4.7s-.4,1.1-1,3.1a66.92,66.92,0,0,0-2.7,10.4h0c-.8,3.6-1.6,7.8-2.3,12.4,0,.3-.1.5-.1.8v.1l-.6,4.5v.2c0,.3-.1.7-.1,1a138.81,138.81,0,0,0-.5,22.5h0c0,.5.1,1.1.1,1.6.2,2,.4,4.1.7,6.1h0a.6.6,0,0,0,.1.4,93.73,93.73,0,0,0,1.9,9.2s4.4,9.9,6.5-4,3.2-93.6,43.6-81.9a39.76,39.76,0,0,1,14.6,7.7c15.6,13.1,21,37.6,16.1,72.9-.8,5.8-1.4,11.3-1.8,16.7-.3,4.1-5.8,108.9,121.6,92.3h.1c.9-.1,1.9-.3,2.8-.4s1.8-.3,2.7-.4l1.8-.3a27.41,27.41,0,0,0,2.8-.5c1.7-.3,3.5-.6,5.3-.9l3.2-.6h0c2-.4,4-.8,6.1-1.2h0c.9-.2,1.8-.3,2.7-.5,2.6-.6,5.3-1.1,8-1.8l3.7-.9c1.8-.4,3.6-.8,5.4-1.3,1.4-.3,2.8-.7,4.1-1,1.9-.5,3.9-1,5.9-1.5,1.6-.4,3.2-.8,4.8-1.3,2.5-.7,5.1-1.4,7.7-2.1.1,0,.1,0,.2-.1h.2c1.6-.5,3.2-.9,4.8-1.4,1.8-.5,3.6-1.1,5.5-1.6,1.7-.5,3.5-1.1,5.3-1.6s3.8-1.2,5.6-1.8h.1c.1,0,.1,0,.2-.1l6.6-2.1c2-.6,4-1.3,6-2,.1,0,.2-.1.3-.1l2-.6c1.9-.7,3.9-1.3,5.9-2,1.8-.6,3.7-1.3,5.6-2h.2c2-.7,4.1-1.4,6.2-2.2h.1a6.89,6.89,0,0,0,1-.4c1.7-.6,3.3-1.2,5-1.8,2-.7,4-1.5,6.1-2.2h0a12.4,12.4,0,0,0,2.3-1.2h.1a11.6,11.6,0,0,0,2.1-1.6h0a8,8,0,0,0,1.5-1.7h0c.1-.1.1-.2.2-.3h0a11.44,11.44,0,0,0,1.8-4.1c.1-.5.2-.9.3-1.4V519h0c0-.2.1-.4.1-.7h0a30.27,30.27,0,0,0,.2-4.1V514h0a12.31,12.31,0,0,0-.2-2h0v-.4c0-.2-.1-.3-.1-.5a.37.37,0,0,0-.1-.3v-.1h0c0-.2-.1-.3-.1-.5v-.3l.1.1c-11.6-42.7-.3-69.6,9.5-83.4,18.8-26.1,53.5-38.8,89.1-32.6,15.1,2.6,26.3,9,34.8,17.9C560.5,384.8,553.7,353.5,538.5,326.4Z" fill="#0057b7"/>
 </g>
 <path transform="translate(-8.28)" d="m309.1 256.1a56.2 56.2 0 1 1-78.8-10.4 56.23 56.23 0 0 1 78.8 10.4" fill="#fff"/>
 <path transform="translate(-8.28)" d="M490.4,242.1a54.62,54.62,0,0,0-3.8-4.4c-34.8-10.6-62.1-2.3-76.7,4.7a50.36,50.36,0,0,0-4.5,53.7,14,14,0,0,1,4.5.6c.5.1,39.4,11.7,83.2-4a15.63,15.63,0,0,1,4.1-.8A51,51,0,0,0,490.4,242.1Z" fill="#fff"/>
 <path transform="translate(-8.28)" d="m79.5 919.5-5 19.8c6.5-6.6 15.8-11.1 24.6-14.1l34.4-136.6c-14.6 10.3-23.2 20.3-26.2 24.3l-23 87.8-5 19z" fill="#ffd700"/>
 <path transform="translate(-8.28)" d="M97.9,963s18-19.6,66.8-20.6c0,0,17.4-47.9,115.7-67.9S430,905,430,905s-55.3,54.7-159.4,71.2S97.9,963,97.9,963Z" fill="#ffd700"/>
</svg>
